\relax 
\providecommand\hyper@newdestlabel[2]{}
\catcode `"\active 
\providecommand\HyperFirstAtBeginDocument{\AtBeginDocument}
\HyperFirstAtBeginDocument{\ifx\hyper@anchor\@undefined
\global\let\oldcontentsline\contentsline
\gdef\contentsline#1#2#3#4{\oldcontentsline{#1}{#2}{#3}}
\global\let\oldnewlabel\newlabel
\gdef\newlabel#1#2{\newlabelxx{#1}#2}
\gdef\newlabelxx#1#2#3#4#5#6{\oldnewlabel{#1}{{#2}{#3}}}
\AtEndDocument{\ifx\hyper@anchor\@undefined
\let\contentsline\oldcontentsline
\let\newlabel\oldnewlabel
\fi}
\fi}
\global\let\hyper@last\relax 
\gdef\HyperFirstAtBeginDocument#1{#1}
\providecommand\HyField@AuxAddToFields[1]{}
\providecommand\HyField@AuxAddToCoFields[2]{}
\select@language{brazil}
\@writefile{toc}{\select@language{brazil}}
\@writefile{lof}{\select@language{brazil}}
\@writefile{lot}{\select@language{brazil}}
\@input{resumo.aux}
\@writefile{toc}{\contentsline {chapter}{Lista de Figuras}{vi}{chapter*.3}}
\@writefile{toc}{\contentsline {chapter}{Lista de Tabelas}{vii}{chapter*.4}}
\@writefile{toc}{\contentsline {chapter}{Lista de Algoritmos}{ix}{chapter*.5}}
\@input{capitulo01/introducao.aux}
\@input{capitulo02/rdf.aux}
\@input{capitulo03/mapeamento.aux}
\@input{capitulo04/proposta.aux}
\@input{capitulo05/implementacao.aux}
\@input{conclusao/conclusao.aux}
\bibstyle{icmc2}
\bibdata{references}
\bibcite{rfc3986}{{1}{2005}{{Berners-Lee et al.{}}}{{Berners-Lee, Fielding e Masinter}}}
\bibcite{berlee-01}{{2}{2001}{{Berners-Lee et al.{}}}{{Berners-Lee, Hendler e Lassila}}}
\bibcite{cardoso-07}{{3}{2007}{{Cardoso}}{{}}}
\bibcite{chebotko-09}{{4}{2009}{{Chebotko et al.{}}}{{Chebotko, Lu e Fatouhi}}}
\bibcite{draft-iri}{{5}{2003}{{Duerst e Suignard}}{{}}}
\bibcite{rdfconcepts}{{6}{2014}{{Graham~Klyne}}{{}}}
\bibcite{sparql-overview}{{7}{2013}{{Harris e Seaborne}}{{}}}
\bibcite{huang-11}{{8}{2011}{{Huang et al.{}}}{{Huang, Abadi e Ren}}}
\bibcite{lima-16}{{9}{2016}{{Lima}}{{}}}
\bibcite{rdfprimer}{{10}{2014}{{Manola et al.{}}}{{Manola, Miller e McBride}}}
\bibcite{neumann-11}{{11}{2011}{{Neumann e Moerkotte}}{{}}}
\bibcite{navathe-05}{{12}{2005}{{Passin}}{{}}}
\bibcite{pham-15}{{13}{2015}{{Pham et al.{}}}{{Pham, Passing, Erling e Boncz}}}
\bibcite{perez-09}{{14}{2009}{{P\'erez et al.{}}}{{P\'erez, Arenas e Gutierrez}}}
\bibcite{berlee-06}{{15}{2006}{{Shadbolt et al.{}}}{{Shadbolt, Hall e Berners-Lee}}}
\bibcite{walji-10}{{16}{2010}{{Walji}}{{}}}
\@writefile{toc}{\contentsline {chapter}{Refer\^encias Bibliogr\'aficas}{40}{chapter*.32}}
\@input{apendices/consultas.aux}
