\relax 
\providecommand\hyper@newdestlabel[2]{}
\citation{lima-16}
\@writefile{toc}{\contentsline {chapter}{\numberline {6}Conclus\~oes}{37}{chapter.6}}
\@writefile{lof}{\addvspace {10\p@ }}
\@writefile{lot}{\addvspace {10\p@ }}
\@writefile{loa}{\addvspace {10\p@ }}
\newlabel{cha:conclusao}{{6}{37}{Conclusões}{chapter.6}{}}
\@writefile{toc}{\contentsline {section}{\numberline {6.1}Trabalhos Futuros}{38}{section.6.1}}
\newlabel{sec:futuros}{{6.1}{38}{Trabalhos Futuros}{section.6.1}{}}
\@setckpt{conclusao/conclusao}{
\setcounter{page}{39}
\setcounter{equation}{0}
\setcounter{enumi}{5}
\setcounter{enumii}{3}
\setcounter{enumiii}{0}
\setcounter{enumiv}{0}
\setcounter{footnote}{0}
\setcounter{mpfootnote}{0}
\setcounter{part}{0}
\setcounter{chapter}{6}
\setcounter{section}{1}
\setcounter{subsection}{0}
\setcounter{subsubsection}{0}
\setcounter{paragraph}{0}
\setcounter{subparagraph}{0}
\setcounter{figure}{0}
\setcounter{table}{0}
\setcounter{ContinuedFloat}{0}
\setcounter{float@type}{4}
\setcounter{AlgoLine}{1}
\setcounter{algocfline}{4}
\setcounter{algocfproc}{4}
\setcounter{algocf}{4}
\setcounter{parentequation}{0}
\setcounter{LT@tables}{0}
\setcounter{LT@chunks}{0}
\setcounter{subfigure}{0}
\setcounter{lofdepth}{1}
\setcounter{subtable}{0}
\setcounter{lotdepth}{1}
\setcounter{Item}{28}
\setcounter{Hfootnote}{7}
\setcounter{bookmark@seq@number}{28}
\setcounter{NAT@ctr}{0}
\setcounter{DefNum}{0}
\setcounter{example}{0}
\setcounter{capkind}{1}
\setcounter{section@level}{0}
}
