\relax 
\providecommand\hyper@newdestlabel[2]{}
\citation{walji-10}
\citation{berlee-01}
\citation{berlee-01}
\citation{rdfprimer}
\citation{navathe-05}
\@writefile{toc}{\contentsline {chapter}{\numberline {1}Introdu\c c\~ao}{1}{chapter.1}}
\@writefile{lof}{\addvspace {10\p@ }}
\@writefile{lot}{\addvspace {10\p@ }}
\@writefile{loa}{\addvspace {10\p@ }}
\citation{rdfprimer}
\providecommand*\caption@xref[2]{\@setref\relax\@undefined{#1}}
\newlabel{subf:faRDF_triples}{{1.1(a)}{2}{Introdução}{subfigure.1}{}}
\newlabel{sub@subf:faRDF_triples}{{(a)}{2}{Introdução\relax }{subfigure.1}{}}
\newlabel{subf:faRDF_three_columns}{{1.1(b)}{2}{Introdução}{subfigure.2}{}}
\newlabel{sub@subf:faRDF_three_columns}{{(b)}{2}{Introdução\relax }{subfigure.2}{}}
\newlabel{subf:faRDF_SQL}{{1.1(c)}{2}{Introdução}{subfigure.3}{}}
\newlabel{sub@subf:faRDF_SQL}{{(c)}{2}{Introdução\relax }{subfigure.3}{}}
\@writefile{lof}{\contentsline {figure}{\numberline {1.1}{\ignorespaces Formas de armazenamento do RDF\relax }}{2}{figure.caption.6}}
\newlabel{fig:faRDF}{{1.1}{2}{Formas de armazenamento do RDF\relax }{figure.caption.6}{}}
\@writefile{lof}{\contentsline {subfigure}{\numberline{(a)}{\ignorespaces Representa\c c\~ao de uma base em formato de triplas.}}{2}{figure.caption.6}}
\@writefile{lof}{\contentsline {subfigure}{\numberline{(b)}{\ignorespaces Representa\c c\~ao em uma tabela de tr\^es colunas.}}{2}{figure.caption.6}}
\@writefile{lof}{\contentsline {subfigure}{\numberline{(c)}{\ignorespaces Representacao das triplas em um esquema estruturado.}}{2}{figure.caption.6}}
\@writefile{lof}{\contentsline {figure}{\numberline {1.2}{\ignorespaces Exemplo de consulta SPARQL.\relax }}{2}{figure.caption.7}}
\newlabel{fig:exConsSQL}{{1.2}{2}{Exemplo de consulta SPARQL.\relax }{figure.caption.7}{}}
\citation{berlee-06}
\citation{cardoso-07,huang-11}
\citation{pham-15}
\citation{pham-15}
\citation{lima-16}
\citation{lima-16}
\@setckpt{capitulo01/introducao}{
\setcounter{page}{4}
\setcounter{equation}{0}
\setcounter{enumi}{0}
\setcounter{enumii}{0}
\setcounter{enumiii}{0}
\setcounter{enumiv}{0}
\setcounter{footnote}{1}
\setcounter{mpfootnote}{0}
\setcounter{part}{0}
\setcounter{chapter}{1}
\setcounter{section}{0}
\setcounter{subsection}{0}
\setcounter{subsubsection}{0}
\setcounter{paragraph}{0}
\setcounter{subparagraph}{0}
\setcounter{figure}{2}
\setcounter{table}{0}
\setcounter{ContinuedFloat}{0}
\setcounter{float@type}{4}
\setcounter{AlgoLine}{0}
\setcounter{algocfline}{0}
\setcounter{algocfproc}{0}
\setcounter{algocf}{0}
\setcounter{parentequation}{0}
\setcounter{LT@tables}{0}
\setcounter{LT@chunks}{0}
\setcounter{subfigure}{0}
\setcounter{lofdepth}{1}
\setcounter{subtable}{0}
\setcounter{lotdepth}{1}
\setcounter{Item}{0}
\setcounter{Hfootnote}{1}
\setcounter{bookmark@seq@number}{5}
\setcounter{NAT@ctr}{0}
\setcounter{DefNum}{0}
\setcounter{example}{0}
\setcounter{capkind}{1}
\setcounter{section@level}{0}
}
