\relax 
\providecommand\hyper@newdestlabel[2]{}
\gdef \LT@i {\LT@entry 
    {2}{73.15874pt}\LT@entry 
    {2}{70.48308pt}\LT@entry 
    {2}{171.8915pt}}
\@writefile{toc}{\contentsline {chapter}{\numberline {A}Base de dados RDF}{37}{appendix.A}}
\@writefile{lof}{\addvspace {10\p@ }}
\@writefile{lot}{\addvspace {10\p@ }}
\@writefile{loa}{\addvspace {10\p@ }}
\newlabel{ap:base_de_dados}{{A}{37}{Base de dados RDF}{appendix.A}{}}
\@setckpt{apendices/basededados}{
\setcounter{page}{39}
\setcounter{equation}{0}
\setcounter{enumi}{5}
\setcounter{enumii}{3}
\setcounter{enumiii}{0}
\setcounter{enumiv}{0}
\setcounter{footnote}{0}
\setcounter{mpfootnote}{0}
\setcounter{part}{0}
\setcounter{chapter}{1}
\setcounter{section}{0}
\setcounter{subsection}{0}
\setcounter{subsubsection}{0}
\setcounter{paragraph}{0}
\setcounter{subparagraph}{0}
\setcounter{figure}{0}
\setcounter{table}{1}
\setcounter{ContinuedFloat}{0}
\setcounter{float@type}{4}
\setcounter{AlgoLine}{1}
\setcounter{algocfline}{4}
\setcounter{algocfproc}{4}
\setcounter{algocf}{4}
\setcounter{parentequation}{0}
\setcounter{LT@tables}{1}
\setcounter{LT@chunks}{2}
\setcounter{subfigure}{0}
\setcounter{lofdepth}{1}
\setcounter{subtable}{0}
\setcounter{lotdepth}{1}
\setcounter{Item}{28}
\setcounter{Hfootnote}{6}
\setcounter{bookmark@seq@number}{30}
\setcounter{NAT@ctr}{16}
\setcounter{DefNum}{0}
\setcounter{example}{0}
\setcounter{capkind}{1}
\setcounter{section@level}{0}
}
