\relax 
\providecommand\hyper@newdestlabel[2]{}
\@writefile{toc}{\contentsline {chapter}{\numberline {A}Consultas utilizadas nos experimentos}{41}{appendix.A}}
\@writefile{lof}{\addvspace {10\p@ }}
\@writefile{lot}{\addvspace {10\p@ }}
\@writefile{loa}{\addvspace {10\p@ }}
\newlabel{ap:consultas}{{A}{41}{Consultas utilizadas nos experimentos}{appendix.A}{}}
\@writefile{toc}{\contentsline {section}{\numberline {A.1}Consulta C1}{41}{section.A.1}}
\@writefile{lof}{\contentsline {figure}{\numberline {A.1}{\ignorespaces Consulta C1 em SPARQL\relax }}{41}{figure.caption.33}}
\@writefile{lof}{\contentsline {figure}{\numberline {A.2}{\ignorespaces Consulta C1 em SQL convertida pelo algoritmo proposto\relax }}{42}{figure.caption.34}}
\@writefile{lof}{\contentsline {figure}{\numberline {A.3}{\ignorespaces Consulta C1 em SQL para a tabela de tr\^es colunas\relax }}{42}{figure.caption.35}}
\@writefile{toc}{\contentsline {section}{\numberline {A.2}Consulta C2}{42}{section.A.2}}
\@writefile{lof}{\contentsline {figure}{\numberline {A.4}{\ignorespaces Consulta C2 em SPARQL\relax }}{42}{figure.caption.36}}
\@writefile{lof}{\contentsline {figure}{\numberline {A.5}{\ignorespaces Consulta C2 em SQL convertida pelo algoritmo proposto\relax }}{43}{figure.caption.37}}
\@writefile{lof}{\contentsline {figure}{\numberline {A.6}{\ignorespaces Consulta C2 em SQL para a tabela de tr\^es colunas\relax }}{43}{figure.caption.38}}
\@writefile{toc}{\contentsline {section}{\numberline {A.3}Consulta C3}{43}{section.A.3}}
\@writefile{lof}{\contentsline {figure}{\numberline {A.7}{\ignorespaces Consulta C3 em SPARQL\relax }}{43}{figure.caption.39}}
\@writefile{lof}{\contentsline {figure}{\numberline {A.8}{\ignorespaces Consulta C3 em SQL convertida pelo algoritmo proposto\relax }}{44}{figure.caption.40}}
\@writefile{lof}{\contentsline {figure}{\numberline {A.9}{\ignorespaces Consulta C3 em SQL para a tabela de tr\^es colunas\relax }}{44}{figure.caption.41}}
\@writefile{toc}{\contentsline {section}{\numberline {A.4}Consulta C4}{44}{section.A.4}}
\@writefile{lof}{\contentsline {figure}{\numberline {A.10}{\ignorespaces Consulta C4 em SPARQL\relax }}{44}{figure.caption.42}}
\@writefile{lof}{\contentsline {figure}{\numberline {A.11}{\ignorespaces Consulta C4 em SQL convertida pelo algoritmo proposto\relax }}{45}{figure.caption.43}}
\@writefile{lof}{\contentsline {figure}{\numberline {A.12}{\ignorespaces Consulta C4 em SQL para a tabela de tr\^es colunas\relax }}{45}{figure.caption.44}}
\@writefile{toc}{\contentsline {section}{\numberline {A.5}Consulta C5}{45}{section.A.5}}
\@writefile{lof}{\contentsline {figure}{\numberline {A.13}{\ignorespaces Consulta C5 em SPARQL\relax }}{46}{figure.caption.45}}
\@writefile{lof}{\contentsline {figure}{\numberline {A.14}{\ignorespaces Consulta C5 em SQL convertida pelo algoritmo proposto\relax }}{46}{figure.caption.46}}
\@writefile{lof}{\contentsline {figure}{\numberline {A.15}{\ignorespaces Consulta C5 em SQL para a tabela de tr\^es colunas\relax }}{47}{figure.caption.47}}
\@setckpt{apendices/consultas}{
\setcounter{page}{48}
\setcounter{equation}{0}
\setcounter{enumi}{5}
\setcounter{enumii}{3}
\setcounter{enumiii}{0}
\setcounter{enumiv}{0}
\setcounter{footnote}{0}
\setcounter{mpfootnote}{0}
\setcounter{part}{0}
\setcounter{chapter}{1}
\setcounter{section}{5}
\setcounter{subsection}{0}
\setcounter{subsubsection}{0}
\setcounter{paragraph}{0}
\setcounter{subparagraph}{0}
\setcounter{figure}{15}
\setcounter{table}{0}
\setcounter{ContinuedFloat}{0}
\setcounter{float@type}{4}
\setcounter{AlgoLine}{1}
\setcounter{algocfline}{4}
\setcounter{algocfproc}{4}
\setcounter{algocf}{4}
\setcounter{parentequation}{0}
\setcounter{LT@tables}{0}
\setcounter{LT@chunks}{0}
\setcounter{subfigure}{0}
\setcounter{lofdepth}{1}
\setcounter{subtable}{0}
\setcounter{lotdepth}{1}
\setcounter{Item}{28}
\setcounter{Hfootnote}{7}
\setcounter{bookmark@seq@number}{35}
\setcounter{NAT@ctr}{16}
\setcounter{DefNum}{0}
\setcounter{example}{0}
\setcounter{capkind}{1}
\setcounter{section@level}{0}
}
