Terminais sem uso na gramática

   OPENPARENTHESIS
   CLOPARENTESIS


Gramática

    0 $accept: sparql $end

    1 sparql: query
    2       | prefixes query

    3 prefixes: prefix
    4         | prefixes prefix

    5 prefix: PREFIX URI COLON OPEPTBRA tripats CLOPTBRA

    6 query: SELECT projections filters

    7 projections: VAR
    8            | VAR projections

    9 tripats: tripat
   10        | tripats tripat

   11 tripat: URI URI URI DOT
   12       | VAR URI URI DOT
   13       | URI URI VAR DOT
   14       | VAR URI VAR DOT

   15 filters: %empty
   16        | WHERE OPECURBRA tripats CLOCURBRA


Terminais, com as regras onde eles aparecem

$end (0) 0
error (256)
SELECT (258) 6
PREFIX (259) 5
WHERE (260) 16
OPECURBRA (261) 16
CLOCURBRA (262) 16
URI (263) 5 11 12 13 14
VAR (264) 7 8 12 13 14
DOT (265) 11 12 13 14
OPENPARENTHESIS (266)
CLOPARENTESIS (267)
OPEPTBRA (268) 5
CLOPTBRA (269) 5
COLON (270) 5


Não terminais com as regras onde eles aparecem

$accept (16)
    à esquerda: 0
sparql (17)
    à esquerda: 1 2, à direita: 0
prefixes (18)
    à esquerda: 3 4, à direita: 2 4
prefix (19)
    à esquerda: 5, à direita: 3 4
query (20)
    à esquerda: 6, à direita: 1 2
projections (21)
    à esquerda: 7 8, à direita: 6 8
tripats (22)
    à esquerda: 9 10, à direita: 5 10 16
tripat (23)
    à esquerda: 11 12 13 14, à direita: 9 10
filters (24)
    à esquerda: 15 16, à direita: 6


Estado 0

    0 $accept: . sparql $end

    SELECT  deslocar, e ir ao estado 1
    PREFIX  deslocar, e ir ao estado 2

    sparql    ir ao estado 3
    prefixes  ir ao estado 4
    prefix    ir ao estado 5
    query     ir ao estado 6


Estado 1

    6 query: SELECT . projections filters

    VAR  deslocar, e ir ao estado 7

    projections  ir ao estado 8


Estado 2

    5 prefix: PREFIX . URI COLON OPEPTBRA tripats CLOPTBRA

    URI  deslocar, e ir ao estado 9


Estado 3

    0 $accept: sparql . $end

    $end  deslocar, e ir ao estado 10


Estado 4

    2 sparql: prefixes . query
    4 prefixes: prefixes . prefix

    SELECT  deslocar, e ir ao estado 1
    PREFIX  deslocar, e ir ao estado 2

    prefix  ir ao estado 11
    query   ir ao estado 12


Estado 5

    3 prefixes: prefix .

    $padrão  reduzir usando a regra 3 (prefixes)


Estado 6

    1 sparql: query .

    $padrão  reduzir usando a regra 1 (sparql)


Estado 7

    7 projections: VAR .
    8            | VAR . projections

    VAR  deslocar, e ir ao estado 7

    $padrão  reduzir usando a regra 7 (projections)

    projections  ir ao estado 13


Estado 8

    6 query: SELECT projections . filters

    WHERE  deslocar, e ir ao estado 14

    $padrão  reduzir usando a regra 15 (filters)

    filters  ir ao estado 15


Estado 9

    5 prefix: PREFIX URI . COLON OPEPTBRA tripats CLOPTBRA

    COLON  deslocar, e ir ao estado 16


Estado 10

    0 $accept: sparql $end .

    $padrão  aceitar


Estado 11

    4 prefixes: prefixes prefix .

    $padrão  reduzir usando a regra 4 (prefixes)


Estado 12

    2 sparql: prefixes query .

    $padrão  reduzir usando a regra 2 (sparql)


Estado 13

    8 projections: VAR projections .

    $padrão  reduzir usando a regra 8 (projections)


Estado 14

   16 filters: WHERE . OPECURBRA tripats CLOCURBRA

    OPECURBRA  deslocar, e ir ao estado 17


Estado 15

    6 query: SELECT projections filters .

    $padrão  reduzir usando a regra 6 (query)


Estado 16

    5 prefix: PREFIX URI COLON . OPEPTBRA tripats CLOPTBRA

    OPEPTBRA  deslocar, e ir ao estado 18


Estado 17

   16 filters: WHERE OPECURBRA . tripats CLOCURBRA

    URI  deslocar, e ir ao estado 19
    VAR  deslocar, e ir ao estado 20

    tripats  ir ao estado 21
    tripat   ir ao estado 22


Estado 18

    5 prefix: PREFIX URI COLON OPEPTBRA . tripats CLOPTBRA

    URI  deslocar, e ir ao estado 19
    VAR  deslocar, e ir ao estado 20

    tripats  ir ao estado 23
    tripat   ir ao estado 22


Estado 19

   11 tripat: URI . URI URI DOT
   13       | URI . URI VAR DOT

    URI  deslocar, e ir ao estado 24


Estado 20

   12 tripat: VAR . URI URI DOT
   14       | VAR . URI VAR DOT

    URI  deslocar, e ir ao estado 25


Estado 21

   10 tripats: tripats . tripat
   16 filters: WHERE OPECURBRA tripats . CLOCURBRA

    CLOCURBRA  deslocar, e ir ao estado 26
    URI        deslocar, e ir ao estado 19
    VAR        deslocar, e ir ao estado 20

    tripat  ir ao estado 27


Estado 22

    9 tripats: tripat .

    $padrão  reduzir usando a regra 9 (tripats)


Estado 23

    5 prefix: PREFIX URI COLON OPEPTBRA tripats . CLOPTBRA
   10 tripats: tripats . tripat

    URI       deslocar, e ir ao estado 19
    VAR       deslocar, e ir ao estado 20
    CLOPTBRA  deslocar, e ir ao estado 28

    tripat  ir ao estado 27


Estado 24

   11 tripat: URI URI . URI DOT
   13       | URI URI . VAR DOT

    URI  deslocar, e ir ao estado 29
    VAR  deslocar, e ir ao estado 30


Estado 25

   12 tripat: VAR URI . URI DOT
   14       | VAR URI . VAR DOT

    URI  deslocar, e ir ao estado 31
    VAR  deslocar, e ir ao estado 32


Estado 26

   16 filters: WHERE OPECURBRA tripats CLOCURBRA .

    $padrão  reduzir usando a regra 16 (filters)


Estado 27

   10 tripats: tripats tripat .

    $padrão  reduzir usando a regra 10 (tripats)


Estado 28

    5 prefix: PREFIX URI COLON OPEPTBRA tripats CLOPTBRA .

    $padrão  reduzir usando a regra 5 (prefix)


Estado 29

   11 tripat: URI URI URI . DOT

    DOT  deslocar, e ir ao estado 33


Estado 30

   13 tripat: URI URI VAR . DOT

    DOT  deslocar, e ir ao estado 34


Estado 31

   12 tripat: VAR URI URI . DOT

    DOT  deslocar, e ir ao estado 35


Estado 32

   14 tripat: VAR URI VAR . DOT

    DOT  deslocar, e ir ao estado 36


Estado 33

   11 tripat: URI URI URI DOT .

    $padrão  reduzir usando a regra 11 (tripat)


Estado 34

   13 tripat: URI URI VAR DOT .

    $padrão  reduzir usando a regra 13 (tripat)


Estado 35

   12 tripat: VAR URI URI DOT .

    $padrão  reduzir usando a regra 12 (tripat)


Estado 36

   14 tripat: VAR URI VAR DOT .

    $padrão  reduzir usando a regra 14 (tripat)
